%YAML 1.1
%TAG !u! tag:unity3d.com,2011:
--- !u!114 &2979483855503005794
MonoBehaviour:
  m_ObjectHideFlags: 0
  m_CorrespondingSourceObject: {fileID: 0}
  m_PrefabInstance: {fileID: 0}
  m_PrefabAsset: {fileID: 0}
  m_GameObject: {fileID: 6861470622900568181}
  m_Enabled: 1
  m_EditorHideFlags: 0
  m_Script: {fileID: 11500000, guid: b3bbbffb11a244fe93523ad6a6b6177c, type: 3}
  m_Name: 
  m_EditorClassIdentifier: 
--- !u!1001 &1326965232594164345
PrefabInstance:
  m_ObjectHideFlags: 0
  serializedVersion: 2
  m_Modification:
    m_TransformParent: {fileID: 0}
    m_Modifications:
    - target: {fileID: 5571661875685743116, guid: 72ec9e2fccb2a4c72b392bcbac60b4ce, type: 3}
      propertyPath: m_Name
      value: ChapterCamera
      objectReference: {fileID: 0}
    - target: {fileID: 5571661875685743118, guid: 72ec9e2fccb2a4c72b392bcbac60b4ce, type: 3}
      propertyPath: orthographic size
      value: 3
      objectReference: {fileID: 0}
    - target: {fileID: 5571661875685743153, guid: 72ec9e2fccb2a4c72b392bcbac60b4ce, type: 3}
      propertyPath: m_LocalPosition.x
      value: 0
      objectReference: {fileID: 0}
    - target: {fileID: 5571661875685743153, guid: 72ec9e2fccb2a4c72b392bcbac60b4ce, type: 3}
      propertyPath: m_LocalPosition.y
      value: 0
      objectReference: {fileID: 0}
    - target: {fileID: 5571661875685743153, guid: 72ec9e2fccb2a4c72b392bcbac60b4ce, type: 3}
      propertyPath: m_LocalPosition.z
      value: -10
      objectReference: {fileID: 0}
    - target: {fileID: 5571661875685743153, guid: 72ec9e2fccb2a4c72b392bcbac60b4ce, type: 3}
      propertyPath: m_LocalRotation.x
      value: 0
      objectReference: {fileID: 0}
    - target: {fileID: 5571661875685743153, guid: 72ec9e2fccb2a4c72b392bcbac60b4ce, type: 3}
      propertyPath: m_LocalRotation.y
      value: 0
      objectReference: {fileID: 0}
    - target: {fileID: 5571661875685743153, guid: 72ec9e2fccb2a4c72b392bcbac60b4ce, type: 3}
      propertyPath: m_LocalRotation.z
      value: 0
      objectReference: {fileID: 0}
    - target: {fileID: 5571661875685743153, guid: 72ec9e2fccb2a4c72b392bcbac60b4ce, type: 3}
      propertyPath: m_LocalRotation.w
      value: 1
      objectReference: {fileID: 0}
    - target: {fileID: 5571661875685743153, guid: 72ec9e2fccb2a4c72b392bcbac60b4ce, type: 3}
      propertyPath: m_RootOrder
      value: 0
      objectReference: {fileID: 0}
    - target: {fileID: 5571661875685743153, guid: 72ec9e2fccb2a4c72b392bcbac60b4ce, type: 3}
      propertyPath: m_LocalEulerAnglesHint.x
      value: 0
      objectReference: {fileID: 0}
    - target: {fileID: 5571661875685743153, guid: 72ec9e2fccb2a4c72b392bcbac60b4ce, type: 3}
      propertyPath: m_LocalEulerAnglesHint.y
      value: 0
      objectReference: {fileID: 0}
    - target: {fileID: 5571661875685743153, guid: 72ec9e2fccb2a4c72b392bcbac60b4ce, type: 3}
      propertyPath: m_LocalEulerAnglesHint.z
      value: 0
      objectReference: {fileID: 0}
    m_RemovedComponents:
    - {fileID: 5571661875685743119, guid: 72ec9e2fccb2a4c72b392bcbac60b4ce, type: 3}
  m_SourcePrefab: {fileID: 100100000, guid: 72ec9e2fccb2a4c72b392bcbac60b4ce, type: 3}
--- !u!1 &6861470622900568181 stripped
GameObject:
  m_CorrespondingSourceObject: {fileID: 5571661875685743116, guid: 72ec9e2fccb2a4c72b392bcbac60b4ce, type: 3}
  m_PrefabInstance: {fileID: 1326965232594164345}
  m_PrefabAsset: {fileID: 0}
