%YAML 1.1
%TAG !u! tag:unity3d.com,2011:
--- !u!114 &11400000
MonoBehaviour:
  m_ObjectHideFlags: 0
  m_CorrespondingSourceObject: {fileID: 0}
  m_PrefabInstance: {fileID: 0}
  m_PrefabAsset: {fileID: 0}
  m_GameObject: {fileID: 0}
  m_Enabled: 1
  m_EditorHideFlags: 0
  m_Script: {fileID: 11500000, guid: 8de61c2329704ac0ac46aaf5bf1c7b2c, type: 3}
  m_Name: 4
  m_EditorClassIdentifier: 
  from: {fileID: 11400000, guid: f924499a8a15a4a3fa1ce92ea847b9b4, type: 2}
  message: "\t\uFF08\u6478\u5934\uFF09 \u201C\u522B\u7740\u6025\uFF0C\u8001\u5E08\u5E2E\u4F60\u628A\u54E5\u54E5\u627E\u56DE\u6765\u3002\u8FD8\u8BB0\u5F97\u4E0A\u6B21\u89C1\u5230\u4ED6\u662F\u4EC0\u4E48\u65F6\u5019\u5417\uFF1F\u201D"
