%YAML 1.1
%TAG !u! tag:unity3d.com,2011:
--- !u!114 &11400000
MonoBehaviour:
  m_ObjectHideFlags: 0
  m_CorrespondingSourceObject: {fileID: 0}
  m_PrefabInstance: {fileID: 0}
  m_PrefabAsset: {fileID: 0}
  m_GameObject: {fileID: 0}
  m_Enabled: 1
  m_EditorHideFlags: 0
  m_Script: {fileID: 11500000, guid: 2c055caece57423bb1f4e2d8104f83dc, type: 3}
  m_Name: ConversationDatabase
  m_EditorClassIdentifier: 
  chats:
  - {fileID: 11400000, guid: 2ef2bf72b860948be85516eccdb26a18, type: 2}
  - {fileID: 11400000, guid: 7ab9914a3ec0787458f4b4a8034d34f8, type: 2}
  - {fileID: 11400000, guid: 196aca8f26b13644494a72ec1c5d5a70, type: 2}
  - {fileID: 11400000, guid: e01c0211e80273c409c990700ad682d4, type: 2}
  - {fileID: 11400000, guid: 9ba34167c439bfe4b80f18d630b78cdd, type: 2}
  - {fileID: 11400000, guid: 883555c78fc79bb4ca9825682ef91f85, type: 2}
  - {fileID: 11400000, guid: 0aa7bec624ba2cf43b0419dc0fbb6e24, type: 2}
  - {fileID: 11400000, guid: 94193936cdea78f4ab152b8fc6b35b89, type: 2}
  - {fileID: 11400000, guid: 41387f964221ac141aa5b781e0810df6, type: 2}
  - {fileID: 11400000, guid: f037f2dc303dfd54191c081a62e6bab3, type: 2}
  - {fileID: 11400000, guid: 02b8732c135e5414880beef0476ef527, type: 2}
  - {fileID: 11400000, guid: f6e5f4a0e4b6731429e6e6ba8ec16fdb, type: 2}
  - {fileID: 11400000, guid: 0e1af6926bd57254699a87477c5d26a2, type: 2}
  - {fileID: 11400000, guid: 8079f5007c1369949b01fd35d31c618b, type: 2}
  - {fileID: 11400000, guid: 9bd6203873b277c44adde9495d48a3ca, type: 2}
  - {fileID: 11400000, guid: e1670f4a2bb45f545a6dde43f1d14c33, type: 2}
  - {fileID: 11400000, guid: 18a3e42b35c08a145ad2683c5df95620, type: 2}
