%YAML 1.1
%TAG !u! tag:unity3d.com,2011:
--- !u!114 &11400000
MonoBehaviour:
  m_ObjectHideFlags: 0
  m_CorrespondingSourceObject: {fileID: 0}
  m_PrefabInstance: {fileID: 0}
  m_PrefabAsset: {fileID: 0}
  m_GameObject: {fileID: 0}
  m_Enabled: 1
  m_EditorHideFlags: 0
  m_Script: {fileID: 11500000, guid: 98801712ab9ac4b4081b8b0c3414713d, type: 3}
  m_Name: IdCard
  m_EditorClassIdentifier: 
  title: "\u8EAB\u4EFD\u5361"
  description: "\u6539\u9020\u4EBA\u519B\u5B98\u7684\u8EAB\u4EFD\u5361"
  icon: {fileID: 21300000, guid: de3dde55d69f94bd89eb9b0bfb834b53, type: 3}
  stackable: 0
