%YAML 1.1
%TAG !u! tag:unity3d.com,2011:
--- !u!74 &7400000
AnimationClip:
  m_ObjectHideFlags: 0
  m_CorrespondingSourceObject: {fileID: 0}
  m_PrefabInstance: {fileID: 0}
  m_PrefabAsset: {fileID: 0}
  m_Name: Idle
  serializedVersion: 6
  m_Legacy: 0
  m_Compressed: 0
  m_UseHighQualityCurve: 1
  m_RotationCurves: []
  m_CompressedRotationCurves: []
  m_EulerCurves: []
  m_PositionCurves: []
  m_ScaleCurves: []
  m_FloatCurves: []
  m_PPtrCurves:
  - curve:
    - time: 0
      value: {fileID: 21300000, guid: 9cbc25fd432d547cd8670fcae688296f, type: 3}
    - time: 0.083333336
      value: {fileID: 21300000, guid: 452757844fc42431187b4f00fbb49477, type: 3}
    - time: 0.16666667
      value: {fileID: 21300000, guid: fbffdf20cfe1c4cc9854d23f81eba551, type: 3}
    - time: 0.25
      value: {fileID: 21300000, guid: dd93325ced39248e29cf6d4f4ea6e7cb, type: 3}
    - time: 0.33333334
      value: {fileID: 21300000, guid: 40ec6b213555c4a059be5954a2c66283, type: 3}
    - time: 0.41666666
      value: {fileID: 21300000, guid: cbcc0023f75a146d3990e7a7414260fc, type: 3}
    - time: 0.5
      value: {fileID: 21300000, guid: 5ba40ddbb69484994953dbae0d6ef1fb, type: 3}
    - time: 0.5833333
      value: {fileID: 21300000, guid: 22ac3f722f337498f93609ec11ec388b, type: 3}
    - time: 0.6666667
      value: {fileID: 21300000, guid: e6da0542b64fd4e83bbbb92d7542454a, type: 3}
    - time: 0.75
      value: {fileID: 21300000, guid: c854ce3aa2a7a4526838599521aeb5b2, type: 3}
    - time: 0.8333333
      value: {fileID: 21300000, guid: 9d764ff45d9154d199fbc7543781ad05, type: 3}
    - time: 0.9166667
      value: {fileID: 21300000, guid: b4d1d819376cb43b7ac14b210fd669ed, type: 3}
    attribute: m_Sprite
    path: 
    classID: 212
    script: {fileID: 0}
  m_SampleRate: 12
  m_WrapMode: 0
  m_Bounds:
    m_Center: {x: 0, y: 0, z: 0}
    m_Extent: {x: 0, y: 0, z: 0}
  m_ClipBindingConstant:
    genericBindings:
    - serializedVersion: 2
      path: 0
      attribute: 0
      script: {fileID: 0}
      typeID: 212
      customType: 23
      isPPtrCurve: 1
    pptrCurveMapping:
    - {fileID: 21300000, guid: 9cbc25fd432d547cd8670fcae688296f, type: 3}
    - {fileID: 21300000, guid: 452757844fc42431187b4f00fbb49477, type: 3}
    - {fileID: 21300000, guid: fbffdf20cfe1c4cc9854d23f81eba551, type: 3}
    - {fileID: 21300000, guid: dd93325ced39248e29cf6d4f4ea6e7cb, type: 3}
    - {fileID: 21300000, guid: 40ec6b213555c4a059be5954a2c66283, type: 3}
    - {fileID: 21300000, guid: cbcc0023f75a146d3990e7a7414260fc, type: 3}
    - {fileID: 21300000, guid: 5ba40ddbb69484994953dbae0d6ef1fb, type: 3}
    - {fileID: 21300000, guid: 22ac3f722f337498f93609ec11ec388b, type: 3}
    - {fileID: 21300000, guid: e6da0542b64fd4e83bbbb92d7542454a, type: 3}
    - {fileID: 21300000, guid: c854ce3aa2a7a4526838599521aeb5b2, type: 3}
    - {fileID: 21300000, guid: 9d764ff45d9154d199fbc7543781ad05, type: 3}
    - {fileID: 21300000, guid: b4d1d819376cb43b7ac14b210fd669ed, type: 3}
  m_AnimationClipSettings:
    serializedVersion: 2
    m_AdditiveReferencePoseClip: {fileID: 0}
    m_AdditiveReferencePoseTime: 0
    m_StartTime: 0
    m_StopTime: 1
    m_OrientationOffsetY: 0
    m_Level: 0
    m_CycleOffset: 0
    m_HasAdditiveReferencePose: 0
    m_LoopTime: 1
    m_LoopBlend: 0
    m_LoopBlendOrientation: 0
    m_LoopBlendPositionY: 0
    m_LoopBlendPositionXZ: 0
    m_KeepOriginalOrientation: 0
    m_KeepOriginalPositionY: 1
    m_KeepOriginalPositionXZ: 0
    m_HeightFromFeet: 0
    m_Mirror: 0
  m_EditorCurves: []
  m_EulerEditorCurves: []
  m_HasGenericRootTransform: 0
  m_HasMotionFloatCurves: 0
  m_Events: []
