%YAML 1.1
%TAG !u! tag:unity3d.com,2011:
--- !u!114 &11400000
MonoBehaviour:
  m_ObjectHideFlags: 0
  m_CorrespondingSourceObject: {fileID: 0}
  m_PrefabInstance: {fileID: 0}
  m_PrefabAsset: {fileID: 0}
  m_GameObject: {fileID: 0}
  m_Enabled: 1
  m_EditorHideFlags: 0
  m_Script: {fileID: 11500000, guid: 8de61c2329704ac0ac46aaf5bf1c7b2c, type: 3}
  m_Name: 6
  m_EditorClassIdentifier: 
  from: {fileID: 11400000, guid: f924499a8a15a4a3fa1ce92ea847b9b4, type: 2}
  message: "\u201C\u539F\u6765\u4F60\u5728\u8FD9\u554A\uFF0C\u77E5\u9053\u59B9\u59B9\u591A\u62C5\u5FC3\u4F60\u5417\uFF1F\u4F60\u5728\u90A3\u505A\u4EC0\u4E48\u5462\uFF1F\u201D"
