%YAML 1.1
%TAG !u! tag:unity3d.com,2011:
--- !u!114 &11400000
MonoBehaviour:
  m_ObjectHideFlags: 0
  m_CorrespondingSourceObject: {fileID: 0}
  m_PrefabInstance: {fileID: 0}
  m_PrefabAsset: {fileID: 0}
  m_GameObject: {fileID: 0}
  m_Enabled: 1
  m_EditorHideFlags: 0
  m_Script: {fileID: 11500000, guid: f4208821d6764829a0b4951649305e22, type: 3}
  m_Name: ExampleChat
  m_EditorClassIdentifier: 
  title: Example
  messages:
  - {fileID: 11400000, guid: 46088a965330e4812a80c8bf0b7d861d, type: 2}
  - {fileID: 11400000, guid: c19b3ca63e86648e5abfc0bd6c465c25, type: 2}
  - {fileID: 11400000, guid: 01a63fbd7f797423d90a817601030523, type: 2}
  - {fileID: 11400000, guid: e047f716299dd4c27acc4e7408246f75, type: 2}
  - {fileID: 11400000, guid: 734892f892a1b4a6c9ed288d08ec3c71, type: 2}
  - {fileID: 11400000, guid: 8c49d3f3ac2a04032bd32036921f71a2, type: 2}
  - {fileID: 11400000, guid: 218fd49f4800346c3af3e6fde467007b, type: 2}
  - {fileID: 11400000, guid: a34b28e999e734102beee5fa396be568, type: 2}
  - {fileID: 11400000, guid: 546cb39187830422c82f18723f21174f, type: 2}
  - {fileID: 11400000, guid: f412b2ccdebbb4c4392c8f8a65bb907e, type: 2}
  - {fileID: 11400000, guid: 368b87bd2679f4b258c5d652314ae7e1, type: 2}
  - {fileID: 11400000, guid: b658ef6aa268b407faf841d584df7571, type: 2}
  - {fileID: 11400000, guid: 78298aca496ca4e69bcbc0b338e63d41, type: 2}
  - {fileID: 11400000, guid: 8549a8f10fe2d4530992f81afa5bf591, type: 2}
  - {fileID: 11400000, guid: 34824e3b0370047619129ef6df219455, type: 2}
  - {fileID: 11400000, guid: f51792d55bbe0448c9fdc11e9c07cf47, type: 2}
  - {fileID: 11400000, guid: 486e60a5694ff4997baa8755f2b3c58d, type: 2}
  - {fileID: 11400000, guid: e191a534363834bd89ed7200ed5201bf, type: 2}
