%YAML 1.1
%TAG !u! tag:unity3d.com,2011:
--- !u!114 &11400000
MonoBehaviour:
  m_ObjectHideFlags: 0
  m_CorrespondingSourceObject: {fileID: 0}
  m_PrefabInstance: {fileID: 0}
  m_PrefabAsset: {fileID: 0}
  m_GameObject: {fileID: 0}
  m_Enabled: 1
  m_EditorHideFlags: 0
  m_Script: {fileID: 11500000, guid: 8de61c2329704ac0ac46aaf5bf1c7b2c, type: 3}
  m_Name: 4
  m_EditorClassIdentifier: 
  from: {fileID: 11400000, guid: ca5b76d78f699c343bd6472f06902afc, type: 2}
  message: "\u201C\u5BF9\u4E86\uFF0C\u6211\u5728\u9E3D\u5B50\u8EAB\u4E0A\u627E\u5230\u4E86\u8FD9\u4E2A\uFF01\u201D"
