%YAML 1.1
%TAG !u! tag:unity3d.com,2011:
--- !u!114 &11400000
MonoBehaviour:
  m_ObjectHideFlags: 0
  m_CorrespondingSourceObject: {fileID: 0}
  m_PrefabInstance: {fileID: 0}
  m_PrefabAsset: {fileID: 0}
  m_GameObject: {fileID: 0}
  m_Enabled: 1
  m_EditorHideFlags: 0
  m_Script: {fileID: 11500000, guid: 8de61c2329704ac0ac46aaf5bf1c7b2c, type: 3}
  m_Name: Wine
  m_EditorClassIdentifier: 
  from: {fileID: 11400000, guid: f924499a8a15a4a3fa1ce92ea847b9b4, type: 2}
  message: "\u201C\u96BE\u5F97\u4E00\u89C1\u5B8C\u597D\u7684\u5564\u9152\u201D"
